﻿filename,height,facewidth,waistwidth,neckwidth,sex,skin color,hasglasses,haswatch
016z050pf,1234,142,225,58,1,2,1,1
016z051pf,1307,108,291,90,1,1,0,0
016z052pf,1282,101,282,87,1,1,0,0
017z053pf,1268,111,276,91,1,1,0,1
017z054pf,1321,135,219,95,1,3,1,0
017z055pf,1246,125,230,83,1,1,0,1
017z056pf,1211,110,223,69,1,1,1,0
017z057pf,1143,151,209,63,0,2,1,0
017z058pf,1218,101,209,74,1,1,1,1
017z059pf,1248,78,264,74,1,1,1,1
017z060pf,1269,140,264,95,1,1,0,1
017z061pf,1305,127,225,90,1,1,1,0
017z062pf,1221,131,216,81,1,1,0,0
017z063pf,1259,88,219,84,1,3,0,0
017z064pf,1248,127,218,81,1,3,0,0
017z065pf,1226,138,257,85,1,2,1,1
017z066pf,1182,113,262,70,1,2,1,1
017z067pf,1209,150,220,72,0,2,1,0
017z068pf,1222,135,234,85,1,1,0,1
017z069pf,1195,127,220,83,1,1,0,0
017z070pf,1207,134,253,96,1,2,0,1
017z071pf,1230,158,257,92,1,2,0,1
017z072pf,1346,144,230,92,1,1,0,0
021z001pf,1228,135,240,81,1,1,0,0
021z002pf,1149,149,221,76,0,1,0,0
021z003pf,1220,127,275,101,1,1,1,1
021z004pf,1234,124,234,85,1,1,0,1
021z005pf,1282,122,268,83,1,1,0,0
021z006pf,1317,120,252,90,1,1,1,0
021z007pf,1187,83,240,83,1,1,0,0
021z008pf,1231,118,262,83,1,1,0,0
021z009pf,1229,144,257,92,1,1,1,0
021z010pf,1272,120,286,84,1,3,1,0
022z073pf,1138,159,199,67,0,1,0,0
022z074pf,1280,127,278,87,1,1,0,1
022z075pf,1215,131,265,95,1,1,0,1
022z076pf,1277,131,243,76,1,1,1,1
022z077pf,1259,144,250,84,1,1,1,0
023z078pf,1222,118,234,74,1,1,1,1
023z079pf,1243,115,270,94,1,1,0,0
023z080pf,1283,117,273,88,1,1,0,1
023z081pf,1147,102,227,69,0,1,0,1
023z082pf,1209,124,225,70,0,1,0,0
024z011pf,1353,149,282,83,1,1,1,0
016z050ps,1204,140,181,76,1,2,1,1
016z051ps,1312,158,259,81,1,1,0,0
016z052ps,1268,147,225,78,1,1,0,0
017z053ps,1268,149,189,83,1,1,0,1
017z054ps,1309,151,211,100,1,3,1,1
017z055ps,1241,138,168,83,1,1,0,1
017z056ps,1198,138,149,78,1,1,1,1
018z057ps,1138,173,186,63,0,2,1,1
018z058ps,1213,151,151,78,1,1,1,1
018z059ps,1239,141,232,76,1,1,1,0
018z060ps,1259,154,254,81,1,1,0,0
018z061ps,1287,150,230,78,1,1,1,0
018z062ps,1209,151,216,74,1,1,0,0
019z063ps,1257,142,199,81,1,3,0,0
019z064ps,1243,151,142,83,1,3,0,1
019z065ps,1218,145,220,81,1,2,1,1
019z066ps,1167,142,172,72,1,2,1,0
019z067ps,1215,145,159,74,0,2,1,1
019z068ps,1218,148,170,92,1,1,0,0
020z069ps,1188,144,142,77,1,1,0,1
020z070ps,1206,148,214,78,1,2,0,1
020z072ps,1220,145,234,92,1,2,0,1
020z073ps,1330,161,213,89,1,1,0,0
021z001ps,1226,159,191,81,1,1,0,1
021z002ps,1133,145,170,87,0,1,0,0
021z003ps,1207,154,210,78,1,1,1,0
021z004ps,1222,147,142,67,1,1,0,1
021z005ps,1275,152,232,67,1,1,0,0
021z006ps,1299,149,199,74,1,1,1,1
021z007ps,1188,140,188,65,1,1,0,0
021z008ps,1227,144,232,69,1,1,0,0
021z009ps,1229,151,213,83,1,1,1,0
021z010ps,1250,138,259,73,1,3,1,0
022z073ps,1129,145,193,78,0,1,0,0
022z074ps,1244,158,207,74,1,1,0,1
022z075ps,1200,147,212,78,1,1,0,1
022z076ps,1268,144,221,72,1,1,1,1
022z077ps,1253,152,153,74,1,1,1,0
023z078ps,1211,145,225,63,1,1,1,0
023z079ps,1236,149,240,81,1,1,0,0
023z080ps,1289,144,230,83,1,1,0,1
023z081ps,1165,136,170,58,0,1,0,1
023z082ps,1189,142,138,63,0,1,0,0
024z011ps,1349,165,179,83,1,1,1,0
DSC00165,1218,156,325,116,1,1,0,1
DSC00166,1222,131,394,91,1,1,0,1
DSC00167,1131,162,292,92,0,1,0,0
DSC00168,1134,144,333,102,0,1,0,0
DSC00169,1206,156,210,120,1,1,1,1
DSC00170,1205,130,279,92,1,1,1,1
DSC00171,1215,139,215,96,1,1,0,1
DSC00172,1223,138,270,112,1,1,0,1
DSC00173,1272,159,294,119,1,1,0,0
DSC00174,1280,146,325,87,1,1,0,0
DSC00175,1297,155,378,126,1,1,1,0
DSC00176,1305,127,405,93,1,1,1,0
DSC00177,1170,139,183,105,1,1,0,1
DSC00178,1183,117,245,87,1,1,0,1
DSC00179,1223,145,241,121,1,1,0,0
DSC00180,1222,113,273,81,1,1,0,0
DSC00181,1222,158,220,130,1,1,1,0
DSC00182,1216,135,297,95,1,1,1,0
DSC00183,1242,142,273,105,1,3,1,0
DSC00184,1243,137,285,81,1,3,1,0
DSC00185,1324,134,286,102,1,1,1,0
DSC00186,1324,175,200,90,1,1,1,0
DSC00165,1226,155,205,124,1,1,0,1
DSC00166,1228,137,343,101,1,1,0,1
DSC00167,1138,159,160,101,0,1,0,0
DSC00168,1141,143,337,111,0,1,0,0
DSC00169,1210,149,209,142,1,1,1,1
DSC00170,1210,129,360,95,1,1,1,1
DSC00171,1222,138,221,92,1,1,0,1
DSC00172,1229,129,344,129,1,1,0,1
DSC00173,1279,154,262,118,1,1,0,0
DSC00174,1286,136,386,94,1,1,0,0
DSC00175,1303,155,127,136,1,1,1,0
DSC00176,1312,118,388,78,1,1,1,0
DSC00177,1177,148,184,84,1,1,0,1
DSC00178,1191,119,324,83,1,1,0,1
DSC00179,1230,135,246,67,1,1,0,0
DSC00180,1224,113,359,77,1,1,0,0
DSC00181,1227,151,224,83,1,1,1,0
DSC00182,1222,131,392,83,1,1,1,0
DSC00183,1248,140,277,72,1,3,1,0
DSC00184,1248,111,376,76,1,3,1,0
DSC00185,1351,133,324,77,1,1,1,0
DSC00186,1353,157,199,76,1,1,1,0
,,,,,,,,
