|,|
62,65,21,75,31,67,59,83,69,20,64,47,79,57,18,58,78,37,10,49,56,15,54,52,35,17,53,46,48,23,44,12,61,25,81,84,74,55,80,50,14,19,63,26,5,76,82,70,71,72,24,60,73,36,68,4,0,45,66,11,34,42,39,30,86,77,38,27,33,7,32,22,40,85,3,28,51,87,6,16,43,8,1,2,41,13,29,9
25,35,31,20,15,10,65,18,23,37,34,39,76,21,30,32,83,26,53,5,54,59,12,27,14,40,19,3,74,36,75,46,64,38,79,84,57,17,42,56,80,69,82,55,0,62,11,16,47,44,49,71,78,67,28,1,45,48,2,4,6,24,73,61,72,50,52,58,60,81,8,63,22,43,70,77,7,68,66,85,86,33,41,13,29,9,87,51
68,77,33,60,24,63,51,7,62,52,50,79,69,44,64,86,73,61,67,85,56,17,59,75,65,70,58,19,49,82,20,12,18,78,21,81,83,74,31,23,15,53,57,42,35,47,0,26,14,25,54,46,37,5,38,80,76,16,41,6,71,30,10,55,84,8,72,36,39,48,34,11,27,45,32,66,4,3,40,29,87,13,28,22,2,1,43,9
20,24,35,25,77,65,31,68,19,15,79,21,18,64,7,59,23,69,33,56,17,16,60,12,83,75,44,82,73,42,30,74,26,62,53,39,38,76,63,50,37,67,85,10,5,54,41,61,51,14,52,0,6,78,49,57,86,32,46,34,3,80,70,58,36,47,27,8,40,71,84,81,55,29,2,11,48,45,72,1,28,4,13,9,66,22,43,87
65,62,20,31,21,75,35,59,25,18,64,79,67,69,15,83,10,49,23,12,56,57,37,44,19,52,47,17,58,53,54,26,61,50,78,46,63,14,5,48,74,68,24,60,81,84,76,80,82,73,39,55,70,30,77,42,36,34,38,71,0,11,4,86,72,33,7,27,32,40,45,3,85,66,6,16,28,51,22,8,87,2,1,41,43,13,29,9
25,35,20,15,30,39,31,18,23,26,32,65,19,34,76,10,5,12,38,3,16,37,42,53,27,14,40,83,59,74,21,36,64,79,6,54,75,17,82,56,57,46,44,0,2,69,80,84,1,49,24,73,62,11,8,55,28,71,47,50,60,78,61,67,41,77,4,63,52,7,85,68,45,48,58,72,70,29,81,13,86,33,9,22,43,66,51,87
18,65,23,12,59,15,20,31,53,35,75,83,64,26,79,19,14,57,5,62,49,44,37,74,56,17,25,69,76,10,46,42,21,61,82,47,80,67,30,38,50,54,36,73,78,52,0,84,58,39,63,60,55,34,81,70,71,27,24,32,11,6,72,86,40,16,3,48,85,68,4,77,7,8,28,45,33,2,66,22,1,41,13,51,43,87,29,9
25,35,20,39,10,31,15,34,30,32,3,26,18,65,40,23,5,27,37,12,76,14,19,21,83,53,38,36,59,1,54,2,11,42,28,75,84,57,46,74,16,64,79,62,4,49,80,17,56,6,55,48,44,69,47,82,0,8,71,67,78,45,50,24,73,61,22,72,58,52,60,13,63,43,81,68,41,77,29,70,66,85,7,86,9,33,87,51
10,48,21,54,37,84,31,45,55,46,65,83,4,66,47,75,57,22,15,34,80,11,72,53,71,78,76,35,25,36,20,18,59,23,43,67,62,27,5,14,49,74,69,28,32,64,26,40,56,12,58,17,81,79,87,39,3,30,0,52,82,44,61,19,1,38,42,70,50,73,63,2,24,60,6,86,16,68,7,8,33,77,85,13,51,41,9,29
34,10,32,27,40,37,36,76,28,84,3,25,31,1,15,39,11,54,43,35,45,4,55,46,30,5,23,83,53,26,80,18,14,20,22,21,48,65,71,2,57,74,12,72,47,59,75,38,66,0,78,42,49,64,19,17,82,56,79,69,67,62,6,44,16,81,58,61,87,8,73,52,50,70,13,24,63,60,9,86,85,7,29,77,41,68,33,51
48,58,47,87,81,66,62,49,4,72,57,52,67,22,84,61,70,55,78,46,11,75,80,50,63,44,65,59,14,71,69,37,83,45,10,53,64,54,12,56,79,5,21,18,36,31,86,17,23,26,28,74,15,73,20,0,60,19,76,82,43,35,34,27,42,25,68,38,40,39,85,30,3,32,24,6,8,77,33,7,51,1,13,2,16,41,29,9
1,32,40,27,34,28,3,2,36,11,39,30,10,76,5,4,43,14,26,84,37,25,38,22,15,23,35,80,55,53,46,18,31,12,45,42,57,6,54,71,13,72,20,83,74,0,8,48,16,9,65,47,19,59,49,82,75,66,21,17,64,78,56,44,79,81,69,61,62,29,73,58,67,50,87,70,52,41,63,60,86,85,24,7,77,68,33,51
60,79,44,63,64,69,24,50,73,62,68,56,52,61,17,77,59,67,75,7,86,33,65,19,85,82,70,12,18,49,74,83,58,23,20,78,53,15,31,42,57,81,21,51,0,35,47,26,14,5,46,37,38,80,76,54,25,6,71,16,30,10,55,84,36,72,39,41,8,48,34,27,11,32,40,45,3,4,66,28,29,22,13,2,87,1,43,9
16,30,35,25,38,39,19,20,42,26,6,15,18,23,12,5,32,3,14,76,31,8,41,34,53,27,40,65,59,74,79,82,36,44,64,10,2,37,73,83,0,17,29,24,56,60,75,50,49,57,85,69,1,80,77,21,46,54,61,13,62,7,11,63,68,84,28,9,86,52,47,71,55,78,70,67,33,58,4,81,72,48,45,22,43,51,66,87
74,76,53,0,23,82,42,12,18,15,14,59,80,38,5,17,83,26,36,64,56,37,79,57,46,44,19,30,73,75,31,71,65,69,54,49,35,61,78,20,6,27,84,34,55,32,47,16,10,50,70,67,60,81,52,25,21,39,72,85,62,86,40,63,24,58,11,3,8,7,45,28,4,77,33,2,48,41,1,68,22,66,43,13,51,29,87,9
30,39,32,16,3,38,40,26,6,25,27,2,35,34,5,42,8,23,14,15,19,1,76,20,18,12,36,53,10,31,41,13,28,37,74,29,9,11,0,65,59,82,83,80,57,44,79,46,64,73,49,84,17,54,56,75,50,55,71,4,85,21,69,60,61,47,24,62,72,63,78,86,70,77,52,7,67,81,45,58,48,68,22,43,33,66,51,87
75,83,59,64,69,65,56,17,79,67,53,78,74,31,21,54,15,37,18,57,23,46,62,82,47,80,44,12,76,49,61,52,0,71,20,55,81,58,10,84,14,35,73,5,19,26,70,50,36,63,42,72,60,24,25,38,86,30,48,34,45,7,27,85,33,11,39,32,77,68,4,66,6,40,16,51,3,22,28,8,87,43,1,2,41,13,29,9
35,25,15,30,32,20,76,31,23,39,34,18,26,10,37,27,5,53,38,3,65,12,40,83,42,16,19,74,36,14,59,54,21,82,64,0,79,17,46,75,80,56,6,57,84,2,1,69,44,55,71,11,73,28,49,78,24,47,8,62,67,61,45,50,60,4,72,41,52,7,85,48,63,81,70,77,58,43,86,13,68,22,29,33,9,66,51,87
76,53,37,74,15,23,83,80,36,46,54,0,18,31,71,59,82,14,5,10,57,34,12,55,84,17,75,26,65,56,27,64,32,30,35,78,42,79,21,38,47,20,69,72,49,19,44,40,25,67,45,39,11,73,61,81,3,62,6,70,52,28,16,58,4,50,48,60,24,63,43,1,86,22,85,2,66,8,7,33,77,87,68,13,41,51,9,29
32,3,30,39,2,40,27,1,34,38,26,16,5,6,25,36,35,14,42,8,76,28,23,15,12,18,13,19,20,10,9,11,53,37,31,29,74,0,80,41,84,65,57,83,59,46,82,4,49,54,44,55,64,79,71,17,73,75,56,47,72,21,50,61,43,69,22,85,62,45,60,78,48,24,70,63,81,86,52,67,58,7,77,68,66,33,87,51
43,28,22,34,4,27,11,36,1,40,45,32,84,55,10,72,37,76,80,48,46,66,71,3,54,2,5,14,57,53,47,39,87,30,15,26,23,83,31,74,0,18,25,35,12,38,78,49,21,75,65,59,20,81,42,82,17,56,64,58,6,67,19,79,69,13,44,62,61,8,70,16,52,73,50,9,63,86,60,85,24,29,7,41,77,33,68,51
87,66,22,72,45,48,55,43,84,4,71,47,46,80,11,57,54,81,36,78,37,28,10,58,83,53,76,49,75,67,34,27,14,0,74,21,5,59,31,23,40,70,62,65,61,56,15,52,17,69,32,18,64,12,82,26,79,44,1,3,50,30,38,35,42,20,39,73,63,25,19,86,2,6,60,8,85,13,24,7,16,33,51,68,77,9,41,29
